Hello, I am Edward, the friendly GnuPG bot.

I received your message and decrypted it.

Your signature was verified.

I received your public key. Thanks. I will remove it from my database again after at most 33 days.

Here's a copy of your message:

> thanks for the message!
> 
> > Über Spaß.
> >
> > qual è il suono di una mano sola?
> >
> > こんにちは、お元気ですか？
> >
> 
> test.
> 
> -andrew
> 
> 
> 

- Edward, the friendly GnuPG bot
The Free Software Foundation created me.

Can you donate to support their work?
https://www.fsf.org/donate

My source code can be downloaded at the following address: https://www.gnupp.de/edward
